﻿From the Aliens form
from load
myConnectionString = "server=localhost;" _
                   & "uid=darkorbit;" _
                   & "pwd=darkorbit;" _
                   & "database=do_database;"

        conn.ConnectionString = myConnectionString
        cmd.Connection = conn
        Try
            conn.Open()

            'Inializes the variables being used 
            cmd.CommandText = "SELECT name FROM npcs where name = '" & "Streuner" & "'"
            alienName = cmd.ExecuteScalar
            cmd.CommandText = "SELECT hp FROM npcs where name = '" & "Streuner" & "'"
            hp = cmd.ExecuteScalar
            cmd.CommandText = "SELECT shields FROM npcs where name = '" & "Streuner" & "'"
            shields = cmd.ExecuteScalar
            cmd.CommandText = "SELECT damage FROM npcs where name = '" & "Streuner" & "'"
            maxDamage = cmd.ExecuteScalar
            cmd.CommandText = "SELECT speed FROM npcs where name = '" & "Streuner" & "'"
            speed = cmd.ExecuteScalar
            cmd.CommandText = "SELECT ep FROM npcs where name = '" & "Streuner" & "'"
            ep = cmd.ExecuteScalar
            cmd.CommandText = "SELECT honor FROM npcs where name = '" & "Streuner" & "'"
            honor = cmd.ExecuteScalar
            cmd.CommandText = "SELECT Credits FROM npcs where name = '" & "Streuner" & "'"
            credits = cmd.ExecuteScalar
            cmd.CommandText = "SELECT uridium FROM npcs where name = '" & "Streuner" & "'"
            uridium = cmd.ExecuteScalar

            alienHP.Text = hp
            alienShields.Text = shields
            alienMaxDamage.Text = maxDamage
            alienSpeed.Text = speed
            alienEP.Text = ep
            alienCredits.Text = credits
            alienHonor.Text = honor
            alienUridium.Text = uridium
            lblAlienName.Text = alienName


        Catch ex As MySql.Data.MySqlClient.MySqlException

        End Try

        conn.Close()

From combo Selected Index
Try
            conn.Open()

            'Inializes the variables being used 
            cmd.CommandText = "SELECT name FROM npcs where name = '" & Alien_Combo.SelectedItem & "'"
            alienName = cmd.ExecuteScalar
            cmd.CommandText = "SELECT hp FROM npcs where name = '" & Alien_Combo.SelectedItem & "'"
            hp = cmd.ExecuteScalar
            cmd.CommandText = "SELECT shields FROM npcs where name = '" & Alien_Combo.SelectedItem & "'"
            shields = cmd.ExecuteScalar
            cmd.CommandText = "SELECT damage FROM npcs where name = '" & Alien_Combo.SelectedItem & "'"
            maxDamage = cmd.ExecuteScalar
            cmd.CommandText = "SELECT speed FROM npcs where name = '" & Alien_Combo.SelectedItem & "'"
            speed = cmd.ExecuteScalar
            cmd.CommandText = "SELECT ep FROM npcs where name = '" & Alien_Combo.SelectedItem & "'"
            ep = cmd.ExecuteScalar
            cmd.CommandText = "SELECT honor FROM npcs where name = '" & Alien_Combo.SelectedItem & "'"
            honor = cmd.ExecuteScalar
            cmd.CommandText = "SELECT Credits FROM npcs where name = '" & Alien_Combo.SelectedItem & "'"
            credits = cmd.ExecuteScalar
            cmd.CommandText = "SELECT uridium FROM npcs where name = '" & Alien_Combo.SelectedItem & "'"
            uridium = cmd.ExecuteScalar

            alienHP.Text = hp
            alienShields.Text = shields
            alienMaxDamage.Text = maxDamage
            alienSpeed.Text = speed
            alienEP.Text = ep
            alienCredits.Text = credits
            alienHonor.Text = honor
            alienUridium.Text = uridium
            lblAlienName.Text = alienName
        Catch ex As MySql.Data.MySqlClient.MySqlException

        End Try

Ships Forms Deleted items

    Dim conn As New MySql.Data.MySqlClient.MySqlConnection
    Dim myConnectionString As String
    Dim cmd As New MySql.Data.MySqlClient.MySqlCommand
  comboselected
  Try
            conn.Open()

            'Inializes the variables being used 
            cmd.CommandText = "SELECT ship FROM user_ships where ship = '" & ShipCombo.SelectedItem & "'"
            shipName = cmd.ExecuteScalar
            cmd.CommandText = "SELECT hp FROM user_ships where ship = '" & ShipCombo.SelectedItem & "'"
            hp = cmd.ExecuteScalar
            cmd.CommandText = "SELECT cargo FROM user_ships where ship = '" & ShipCombo.SelectedItem & "'"
            cargoNumber = cmd.ExecuteScalar
            cmd.CommandText = "SELECT speed FROM user_ships where ship = '" & ShipCombo.SelectedItem & "'"
            speedNumber = cmd.ExecuteScalar
            cmd.CommandText = "SELECT generators FROM user_ships where ship = '" & ShipCombo.SelectedItem & "'"
            gens = cmd.ExecuteScalar
            cmd.CommandText = "SELECT lasers FROM user_ships where ship = '" & ShipCombo.SelectedItem & "'"
            lasersNumber = cmd.ExecuteScalar
            cmd.CommandText = "SELECT extras FROM user_ships where ship = '" & ShipCombo.SelectedItem & "'"
            extrasNumber = cmd.ExecuteScalar
            cmd.CommandText = "SELECT special FROM user_ships where ship = '" & ShipCombo.SelectedItem & "'"
            spec = cmd.ExecuteScalar
            cmd.CommandText = "SELECT description FROM user_ships where ship = '" & ShipCombo.SelectedItem & "'"
            specText = cmd.ExecuteScalar

            lblShipName.Text = shipName
            baseHP.Text = hp
            lblCargo.Text = cargoNumber
            lblSpeed.Text = speedNumber
            lblGenerators.Text = gens
            lblLasers.Text = lasersNumber
            lblExtras.Text = extrasNumber
            lblSpecial.Text = spec
            txtSpecial.Text = specText

            conn.Close()
        Catch ex As MySql.Data.MySqlClient.MySqlException

        End Try

Load
        myConnectionString = "server=127.0.0.1;" _
                    & "uid=darkorbit;" _
                    & "pwd=darkorbit;" _
                    & "database=do_database;"

        conn.ConnectionString = myConnectionString
        cmd.Connection = conn

        Try
            conn.Open()

            'Inializes the variables being used 
            cmd.CommandText = "SELECT ship FROM user_ships where ship = '" & "Aegis" & "'"
            shipName = cmd.ExecuteScalar
            cmd.CommandText = "SELECT hp FROM user_ships where ship = '" & "Aegis" & "'"
            hp = cmd.ExecuteScalar
            cmd.CommandText = "SELECT cargo FROM user_ships where ship = '" & "Aegis" & "'"
            cargoNumber = cmd.ExecuteScalar
            cmd.CommandText = "SELECT speed FROM user_ships where ship = '" & "Aegis" & "'"
            speedNumber = cmd.ExecuteScalar
            cmd.CommandText = "SELECT generators FROM user_ships where ship = '" & "Aegis" & "'"
            gens = cmd.ExecuteScalar
            cmd.CommandText = "SELECT lasers FROM user_ships where ship = '" & "Aegis" & "'"
            lasersNumber = cmd.ExecuteScalar
            cmd.CommandText = "SELECT extras FROM user_ships where ship = '" & "Aegis" & "'"
            extrasNumber = cmd.ExecuteScalar
            cmd.CommandText = "SELECT special FROM user_ships where ship = '" & "Aegis" & "'"
            spec = cmd.ExecuteScalar
            cmd.CommandText = "SELECT description FROM user_ships where ship = '" & "Aegis" & "'"
            specText = cmd.ExecuteScalar

            lblShipName.Text = shipName
            baseHP.Text = hp
            lblCargo.Text = cargoNumber
            lblSpeed.Text = speedNumber
            lblGenerators.Text = gens
            lblLasers.Text = lasersNumber
            lblExtras.Text = extrasNumber
            lblSpecial.Text = spec
            txtSpecial.Text = specText
        Catch ex As MySql.Data.MySqlClient.MySqlException

        End Try

        conn.Close()



Pilot Points Form



Main Form -------------------------------------------------
Public Sub movingOut()

        'Integers for Rank Points
        Dim streuner1 As Integer = 1
        Dim bossstreuner1 As Integer = 4
        Dim uberstreuner1 As Integer = 8
        Dim lordakia As Integer = 1
        Dim bosslordakia As Integer = 4
        Dim uberlordakia As Integer = 8
        Dim devolarium As Integer = 4
        Dim bossdevolarium As Integer = 16
        Dim uberdevolarium As Integer = 32
        Dim mordon As Integer = 2
        Dim bossmordon As Integer = 8
        Dim ubermordon As Integer = 16
        Dim sibelon As Integer = 5
        Dim bosssibelon As Integer = 20
        Dim ubersibelon As Integer = 40
        Dim saimon As Integer = 2
        Dim bosssaimon As Integer = 8
        Dim ubersaimon As Integer = 16
        Dim sibelonit As Integer = 3
        Dim bosssibelonit As Integer = 12
        Dim ubersibelonit As Integer = 24
        Dim lordakium As Integer = 6
        Dim bosslordakium As Integer = 24
        Dim uberlordakium As Integer = 48
        Dim kristallin As Integer = 3
        Dim bosskristallin As Integer = 12
        Dim uberkristallin As Integer = 24
        Dim kristallon As Integer = 8
        Dim bosskristallon As Integer = 32
        Dim uberkristallon As Integer = 64
        Dim streuner2 As Integer = 2
        Dim bossstreuner2 As Integer = 8
        Dim uberstreuner2 As Integer = 16
        Dim phoenix As Integer = 1
        Dim yamato As Integer = 2
        Dim leonov As Integer = 4
        Dim defcom As Integer = 6
        Dim liberator As Integer = 8
        Dim piranha As Integer = 10
        Dim nostromo As Integer = 12
        Dim vengeance As Integer = 16
        Dim bigboy As Integer = 14
        Dim goliath As Integer = 20
        Dim protegit As Integer = 3
        Dim cubikon As Integer = 10
        Dim kucurbium As Integer = 32

        x = 1 'Reinitializes the variables

        '----- Checks for empty textboxes 

        If NextRank_Text.Text = "" And YourRank_Text.Text = "" Then
            MsgBox("You must enter your current rank points and the points for your next rank!  ", MsgBoxStyle.OkOnly, "Error!")
            GoTo end1
        End If

        If NextRank_Text.Text = "" Then
            MsgBox("You must enter the points for your next rank!  ", MsgBoxStyle.OkOnly, "Error!")
            GoTo end1
        End If

        If YourRank_Text.Text = "" Then
            MsgBox("You must enter your rank points!", MsgBoxStyle.OkOnly, "Error!")
            GoTo end1
        End If

        '----- Sets variables from data presented

        nextrank = NextRank_Text.Text
        yourrank = YourRank_Text.Text
        neededpoints = nextrank - yourrank

        '----- Checks to see if that the rank is possible and sees if the combobox has been changed

        If nextrank <= yourrank Then
            If nextrank = 0 Then
                MsgBox("This is not possible!  Zero is invalid!", MsgBoxStyle.OkOnly, "Error!")
                GoTo end1
            End If
            MsgBox("This is not possible!", MsgBoxStyle.OkOnly, "Error!")
            GoTo end1
        End If

        If nextrank <= 0 Then
            MsgBox("You must enter your current rank points!  Zero is invalid!", MsgBoxStyle.OkOnly, "Error!")
            GoTo end1
        End If

        If AS_Combo.SelectedItem = "" Then
            MsgBox("Please select an Alien or Ship!", MsgBoxStyle.OkOnly, "Error!")
            GoTo end1
        End If

        '-----ALIENS-----

        If AS_Combo.SelectedItem = "Streuner" Then
            x = neededpoints / streuner1
            Calculation_Label.Text = x
            KillType_Label.Text = "Streuner(s)"
            GoTo end1
        End If

        If AS_Combo.SelectedItem = "Boss Streuner" Then
            x = neededpoints / bossstreuner1
            Calculation_Label.Text = x
            KillType_Label.Text = "Boss Streuner(s)"
            GoTo End1
        End If

        If AS_Combo.SelectedItem = "Uber Streuner" Then
            x = neededpoints / uberstreuner1
            Calculation_Label.Text = x
            KillType_Label.Text = "Uber Streuner(s)"
            GoTo End1
        End If

        If AS_Combo.SelectedItem = "Lordakia" Then
            x = neededpoints / lordakia
            Calculation_Label.Text = x
            KillType_Label.Text = "Lordakia(s)"
            GoTo End1
        End If

        If AS_Combo.SelectedItem = "Boss Lordakia" Then
            x = neededpoints / bosslordakia
            Calculation_Label.Text = x
            KillType_Label.Text = "Boss Lordakia(s)"
            GoTo End1
        End If

        If AS_Combo.SelectedItem = "Uber Lordakia" Then
            x = neededpoints / uberlordakia
            Calculation_Label.Text = x
            KillType_Label.Text = "Uber Lordakia(s)"
            GoTo end1
        End If

        If AS_Combo.SelectedItem = "Devolarium" Then
            x = neededpoints / devolarium
            Calculation_Label.Text = x
            KillType_Label.Text = "Devolarium(s)"
            GoTo end1
        End If

        If AS_Combo.SelectedItem = "Boss Devolarium" Then
            x = neededpoints / bossdevolarium
            Calculation_Label.Text = x
            KillType_Label.Text = "Boss Devolarium(s)"
            GoTo end1
        End If

        If AS_Combo.SelectedItem = "Uber Devolarium: then" Then
            x = neededpoints / uberdevolarium
            Calculation_Label.Text = x
            KillType_Label.Text = "Uber Devolarium(s)"
            GoTo end1
        End If

        If AS_Combo.SelectedItem = "Mordon" Then
            x = neededpoints / mordon
            Calculation_Label.Text = x
            KillType_Label.Text = "Mordon(s)"
            GoTo end1
        End If

        If AS_Combo.SelectedItem = "Boss Mordon" Then
            x = neededpoints / bossmordon
            Calculation_Label.Text = x
            KillType_Label.Text = "Boss Mordon(s)"
            GoTo end1
        End If

        If AS_Combo.SelectedItem = "Uber Mordon" Then
            x = neededpoints / ubermordon
            Calculation_Label.Text = x
            KillType_Label.Text = "Uber Mordon(s)"
            GoTo end1
        End If

        If AS_Combo.SelectedItem = "Sibelon" Then
            x = neededpoints / sibelon
            Calculation_Label.Text = x
            KillType_Label.Text = "Sibelon(s)"
            GoTo end1
        End If

        If AS_Combo.SelectedItem = "Boss Sibelon" Then
            x = neededpoints / bosssibelon
            Calculation_Label.Text = x
            KillType_Label.Text = "Boss Sibelon(s)"
            GoTo end1
        End If

        If AS_Combo.SelectedItem = "Uber Sibelon" Then
            x = neededpoints / ubersibelon
            Calculation_Label.Text = x
            KillType_Label.Text = "Uber Sibelon(s)"
            GoTo end1
        End If

        If AS_Combo.SelectedItem = "Saimon" Then
            x = neededpoints / saimon
            Calculation_Label.Text = x
            KillType_Label.Text = "Saimon(s)"
            GoTo end1
        End If

        If AS_Combo.SelectedItem = "Boss Saimon" Then
            x = neededpoints / bosssaimon
            Calculation_Label.Text = x
            KillType_Label.Text = "Boss Saimon(s)"
            GoTo end1
        End If

        If AS_Combo.SelectedItem = "Uber Saimon" Then
            x = neededpoints / ubersaimon
            Calculation_Label.Text = x
            KillType_Label.Text = "Uber Saimon(s)"
            GoTo end1
        End If

        If AS_Combo.SelectedItem = "Sibelonit" Then
            x = neededpoints / sibelonit
            Calculation_Label.Text = x
            KillType_Label.Text = "Sibelonit(s)"
            GoTo end1
        End If

        If AS_Combo.SelectedItem = "Boss Sibelonit" Then
            x = neededpoints / bosssibelonit
            Calculation_Label.Text = x
            KillType_Label.Text = "Boss Sibelonit(s)"
            GoTo end1
        End If

        If AS_Combo.SelectedItem = "Uber Sibelonit" Then
            x = neededpoints / ubersibelonit
            Calculation_Label.Text = x
            KillType_Label.Text = "Uber Sibelonit(s)"
            GoTo end1
        End If

        If AS_Combo.SelectedItem = "Lordakium" Then
            x = neededpoints / lordakium
            Calculation_Label.Text = x
            KillType_Label.Text = "Lordakium(s)"
            GoTo end1
        End If

        If AS_Combo.SelectedItem = "Boss Lordakium" Then
            x = neededpoints / bosslordakium
            Calculation_Label.Text = x
            KillType_Label.Text = "Boss Lordakium(s)"
            GoTo end1
        End If

        If AS_Combo.SelectedItem = "Uber Lordakium" Then
            x = neededpoints / uberlordakium
            Calculation_Label.Text = x
            KillType_Label.Text = "Uber Lordakium(s)"
            GoTo end1
        End If

        If AS_Combo.SelectedItem = "Kristallin" Then
            x = neededpoints / kristallin
            Calculation_Label.Text = x
            KillType_Label.Text = "Kristallin(s)"
        End If

        If AS_Combo.SelectedItem = "Boss Kristallin" Then
            x = neededpoints / bosskristallin
            Calculation_Label.Text = x
            KillType_Label.Text = "Boss Kristallin(s)"
            GoTo end1
        End If

        If AS_Combo.SelectedItem = "Uber Kristallin" Then
            x = neededpoints / uberkristallin
            Calculation_Label.Text = x
            KillType_Label.Text = "Uber Kristallin(s)"
            GoTo end1
        End If

        If AS_Combo.SelectedItem = "Kristallon" Then
            x = neededpoints / kristallon
            Calculation_Label.Text = x
            KillType_Label.Text = "Kristallon(s)"
            GoTo end1
        End If

        If AS_Combo.SelectedItem = "Boss Kristallon" Then
            x = neededpoints / bosskristallon
            Calculation_Label.Text = x
            KillType_Label.Text = "Boss Kristallon(s)"
            GoTo end1
        End If

        If AS_Combo.SelectedItem = "Uber Kristallon" Then
            x = neededpoints / uberkristallon
            Calculation_Label.Text = x
            KillType_Label.Text = "Uber Kristallon(s)"
            GoTo end1
        End If

        If AS_Combo.SelectedItem = "Streune(R)" Then
            x = neededpoints / streuner2
            Calculation_Label.Text = x
            KillType_Label.Text = "StreuneR(s)"
            GoTo end1
        End If

        If AS_Combo.SelectedItem = "Boss Streune(R)" Then
            x = neededpoints / bossstreuner2
            Calculation_Label.Text = x
            KillType_Label.Text = "Boss StreuneR(s)"
            GoTo end1
        End If

        If AS_Combo.SelectedItem = "Uber Streune(R)" Then
            x = neededpoints / uberstreuner2
            Calculation_Label.Text = x
            KillType_Label.Text = "Uber StreuneR(s)"
            GoTo end1
        End If

        If AS_Combo.SelectedItem = "Protegit" Then
            x = neededpoints / protegit
            Calculation_Label.Text = x
            KillType_Label.Text = "Protegit(s)"
            GoTo end1
        End If

        If AS_Combo.SelectedItem = "Cubikon" Then
            x = neededpoints / cubikon
            Calculation_Label.Text = x
            KillType_Label.Text = "Cubikon(s)"
            GoTo end1
        End If

        If AS_Combo.SelectedItem = "Kucurbium" Then
            x = neededpoints / kucurbium
            Calculation_Label.Text = x
            KillType_Label.Text = "Kucurbium(s)"
            GoTo end1
        End If

        '-----SHIPS-----

        If AS_Combo.SelectedItem = "Phoenix" Then
            x = neededpoints / phoenix
            Calculation_Label.Text = x
            KillType_Label.Text = "Phoenix(s)"
            GoTo end1
        End If

        If AS_Combo.SelectedItem = "Yamato" Then
            x = neededpoints / yamato
            Calculation_Label.Text = x
            KillType_Label.Text = "Yamato(s)"
            GoTo end1
        End If

        If AS_Combo.SelectedItem = "Leonov" Then
            x = neededpoints / leonov
            Calculation_Label.Text = x
            KillType_Label.Text = "Leonov(s)"
            GoTo end1
        End If

        If AS_Combo.SelectedItem = "Defcom" Then
            x = neededpoints / defcom
            Calculation_Label.Text = x
            KillType_Label.Text = "Defcom(s)"
            GoTo end1
        End If

        If AS_Combo.SelectedItem = "Liberator" Then
            x = neededpoints / liberator
            Calculation_Label.Text = x
            KillType_Label.Text = "Liberator(s)"
            GoTo end1
        End If

        If AS_Combo.SelectedItem = "Piranha" Then
            x = neededpoints / piranha
            Calculation_Label.Text = x
            KillType_Label.Text = "Piranha(s)"
            GoTo end1
        End If

        If AS_Combo.SelectedItem = "Nostromo" Then
            x = neededpoints / nostromo
            Calculation_Label.Text = x
            KillType_Label.Text = "Nostromo(s)"
            GoTo end1
        End If

        If AS_Combo.SelectedItem = "Big Boy" Then
            x = neededpoints / bigboy
            Calculation_Label.Text = x
            KillType_Label.Text = "BigBoy(s)"
            GoTo end1
        End If

        If AS_Combo.SelectedItem = "Vengeance" Then
            x = neededpoints / vengeance
            Calculation_Label.Text = x
            KillType_Label.Text = "Vengeance(s)"
            GoTo end1
        End If

        If AS_Combo.SelectedItem = "Goliath" Then
            x = neededpoints / goliath
            Calculation_Label.Text = x
            KillType_Label.Text = "Goliath(s)"
            GoTo end1
        End If
        End1:
        End Sub

ALIENS FORM DATA DELETED 6/20/18 3:02
    'Loads the access files
    Public Sub loadAccess()
        Dim fileLocation As String
        Dim databaseLoc As String
        Dim fileName As String
        Dim conString As String
        Dim picFile As String
        Dim pictureFile As String

        'Sets name of Database
        fileName = "DOHelperDB.mdb"

        'Sets Database Location and image folder
        databaseLoc = Application.StartupPath & "\database\" & fileName
        fileLocation = Application.StartupPath & "\images\npcs\"

        'Gets the connection from startup path
        conString = "provider=microsoft.jet.oledb.4.0; data source = " & databaseLoc

        'Creates a connection string
        'con.ConnectionString = conString
        'con.Open()

        Dim ds As New DataSet
        Dim dt As New DataTable
        ds.Tables.Add(dt)
        Dim name As String
        name = Alien_Combo.SelectedItem.ToString

        Dim cmd As String = "SELECT * FROM npcs where name = '" & name & "'"

        Console.WriteLine(name)
        'Query
        Dim da As New OleDbDataAdapter
        'da = db.getOleDbAdapter(cmd)
        'da = New OleDbDataAdapter("SELECT * FROM npcs where name = '" & name & "'", con)

        'Fills data
        da.Fill(dt)
        'Sets the text fields for each of them
        alienHP.Text = dt.Rows(0).Item(0)
        alienShields.Text = dt.Rows(0).Item(3)
        alienMaxDamage.Text = dt.Rows(0).Item(2)
        alienSpeed.Text = dt.Rows(0).Item(5)
        alienEP.Text = dt.Rows(0).Item(4)
        alienCredits.Text = dt.Rows(0).Item(6)
        alienHonor.Text = dt.Rows(0).Item(7)
        alienUridium.Text = dt.Rows(0).Item(8)
        lblAlienName.Text = dt.Rows(0).Item(1)
        picFile = dt.Rows(0).Item(10).ToString


        pictureFile = fileLocation & picFile

        picturePanel.BackgroundImage = System.Drawing.Image.FromFile(pictureFile)

        'con.Close()

    End Sub